Chapter 15-16. Confirmatory Factor Analysis – CHA Statistics II in R
…
측정 오차의 분포(error distribution)

다양한 힘들의 상호작용으로 인한 분포

분산이 유한한 분포 중에 정보 엔트로피가 최대(maximum entropy)인 분포

중심극한정리(Central Limit Theorem)

\(X \sim N(\mu, \sigma^2)\), density function: \(\displaystyle f(x) = \frac{1}{\sqrt{2\pi}\sigma} e^{-\frac{1}{2}(\frac{x-\mu}{\sigma})^2}\)

\(X \sim N(0, 1)\): \(\displaystyle f(x) = \frac{1}{\sqrt{2\pi}} e^{-\frac{1}{2}x^2}\), (standard normal distribution)

예를 들어, 1000명의 사람들이 각자 16번의 동전 던지기를 시행하면서 좌우로 움직인다면,

# A tibble: 1,000 × 16
      V1    V2    V3    V4    V5    V6    V7    V8    V9   V10   V11   V12   V13   V14
   <dbl> <dbl> <dbl> <dbl> <dbl> <dbl> <dbl> <dbl> <dbl> <dbl> <dbl> <dbl> <dbl> <dbl>
 1     1     1    -1    -1    -1    -1    -1     1    -1    -1    -1    -1    -1     1
 2     1     1    -1     1     1     1    -1    -1     1    -1     1    -1     1     1
 3    -1    -1     1    -1    -1     1    -1    -1     1    -1    -1    -1    -1    -1
 4    -1    -1     1    -1    -1     1     1     1    -1    -1     1    -1    -1    -1
 5     1     1     1     1    -1     1    -1     1     1    -1    -1    -1     1     1
 6    -1     1    -1     1    -1    -1     1     1     1     1     1     1     1     1
 7    -1     1    -1     1     1     1    -1     1     1     1     1    -1     1     1
 8     1    -1    -1     1    -1    -1    -1     1    -1    -1    -1     1     1     1
 9     1    -1     1    -1     1     1    -1    -1    -1     1    -1     1     1     1
10    -1    -1     1     1    -1     1     1    -1    -1     1    -1     1     1     1
# ℹ 990 more rows
# ℹ 2 more variables: V15 <dbl>, V16 <dbl>
…
