Chapter 13-14. Path Analysis – CHA Statistics II in R
…
library(haven)
library(psych)
library(tidyverse)
library(lavaan)
library(semTools)
library(manymome)

데이터 준비

# Load the data
nels <- read_csv("data/n=1000,stud & par shorter all miss blank.csv")
nels |> print()

# A tibble: 1,000 x 93
  stu_id sch_id sstratid   sex  race ethnic bys42a bys42b bys44a bys44b bys44c
   <dbl>  <dbl>    <dbl> <dbl> <dbl>  <dbl>  <dbl>  <dbl>  <dbl>  <dbl>  <dbl>
1 124966   1249        1     2     4      1      3      4      2      4      4
2 124972   1249        1     1     4      1      4      5      1      3      3
3 175551   1755        1     2     3      0     NA      3      2      3      3
4 180660   1806        1     1     4      1      2     NA      1      4      4
5 180672   1806        1     2     4      1      2      3      1      4      3
6 298885   2988        2     1     3      0      5      4      2      3      3
# i 994 more rows
# i 82 more variables: bys44d <dbl>, bys44e <dbl>, bys44f <dbl>, bys44g <dbl>,
#   bys44h <dbl>, bys44i <dbl>, bys44j <dbl>, bys44k <dbl>, bys44l <dbl>,
#   bys44m <dbl>, bys48a <dbl>, bys48b <dbl>, bys79a <dbl>, byfamsiz <dbl>,
#   famcomp <dbl>, bygrads <dbl>, byses <dbl>, byfaminc <dbl>, parocc <dbl>,
#   bytxrstd <dbl>, bytxmstd <dbl>, bytxsstd <dbl>, bytxhstd <dbl>,
#   bypared <dbl>, bytests <dbl>, par_inv <dbl>, f1s36a1 <dbl>, ...

# SPSS data: labelled data
library(haven) # install.packages("haven")
nels_sav <- read_sav("data/n=1000,stud & par shorter.sav")
nels_sav |> print()

# A tibble: 1,000 x 93
  stu_id    sch_id    sstratid sex     race    ethnic  bys42a   bys42b   bys44a 
  <dbl+lbl> <dbl+lbl> <dbl+lb> <dbl+l> <dbl+l> <dbl+l> <dbl+lb> <dbl+lb> <dbl+l>
1 124966    1249      1        2 [Fem~ 4 [Whi~ 1 [whi~  3 [2-3~  4 [3-4~ 2 [Agr~
2 124972    1249      1        1 [Mal~ 4 [Whi~ 1 [whi~  4 [3-4~  5 [4-5~ 1 [Str~
3 175551    1755      1        2 [Fem~ 3 [Bla~ 0 [blk~ NA        3 [2-3~ 2 [Agr~
4 180660    1806      1        1 [Mal~ 4 [Whi~ 1 [whi~  2 [1-2~ NA       1 [Str~
5 180672    1806      1        2 [Fem~ 4 [Whi~ 1 [whi~  2 [1-2~  3 [2-3~ 1 [Str~
6 298885    2988      2        1 [Mal~ 3 [Bla~ 0 [blk~  5 [4-5~  4 [3-4~ 2 [Agr~
# i 994 more rows
# i 84 more variables: bys44b <dbl+lbl>, bys44c <dbl+lbl>, bys44d <dbl+lbl>,
#   bys44e <dbl+lbl>, bys44f <dbl+lbl>, bys44g <dbl+lbl>, bys44h <dbl+lbl>,
#   bys44i <dbl+lbl>, bys44j <dbl+lbl>, bys44k <dbl+lbl>, bys44l <dbl+lbl>,
#   bys44m <dbl+lbl>, bys48a <dbl+lbl>, bys48b <dbl+lbl>, bys79a <dbl+lbl>,
#   byfamsiz <dbl+lbl>, famcomp <dbl+lbl>, bygrads <dbl+lbl>, byses <dbl+lbl>,
#   byfaminc <dbl+lbl>, parocc <dbl>, bytxrstd <dbl+lbl>, ...
…
blk,namer,hisp    white-asian        missing 
             0              1              8 

variables: byses, bytests, par_inv, ffugrad, ethnic

Underrepresented ethnic minority, or URM, is coded so that students from African American, Hispanic, and Native backgrounds are coded 1 and students of Asian and Caucasian descent are coded 0.

nels_gpa <-
  nels |>
  select(ethnic, ses = byses, prev = bytests, par = par_inv, gpa = ffugrad) |>
  na.omit()

nels_gpa |> print()

# A tibble: 811 x 5
  ethnic    ses  prev     par   gpa
   <dbl>  <dbl> <dbl>   <dbl> <dbl>
1      1 -0.563  64.4  1.04    5.25
2      1  0.123  48.6 -0.0881  3   
3      0  0.229  49.7 -0.390   2.5 
4      1  0.687  46.6  0.199   6.5 
5      1  0.633  54.9  0.975   4.25
6      0  0.992  38.5 -0.157   6   
# i 805 more rows
…
