Chapter 17. Putting it all together – CHA Statistics II in R
…
Load the data

rejection <- haven::read_sav("data/chap 17 intro latent var SEM/buhs & ladd data.sav")

rejection |> print()

# A tibble: 399 × 8
   ave_rats neg_nom    coop    auto quant  lang  lone schavoid
      <dbl>   <dbl>   <dbl>   <dbl> <dbl> <dbl> <dbl>    <dbl>
 1   -1.33  -1.09    1.19    0.691  7.47   6.30 2.09     2.48 
 2    1.32   0.551  -0.128  -0.0710 2.72   2.76 1.42     2.16 
 3   -0.639 -1.09   -0.293  -1.26   6.40   5.39 1.59     1.38 
 4    1.42  -0.365  -0.190  -0.563  0.989  1.05 0.940    2.13 
 5    0.584 -0.0127 -0.360  -0.126  2.80   3.56 0.357    2.20 
 6   -1.20  -1.51    0.0370  0.0676 7.07   7.79 1.37     2.03 
 7    0.420  0.390  -0.252   0.398  3.68   3.47 2.08     3.00 
 8   -0.404 -0.806   0.775   1.03   7.03   4.94 2.03     2.61 
 9    1.99   1.89   -0.454  -0.664  1.51   5.08 0.660    0.992
10   -0.383 -1.76    0.638   0.0292 6.68   4.95 2.27     2.34 
# ℹ 389 more rows
…
