Chapter 12 – CHA Statistics II in R
…
공분산 행렬로부터 데이터 생성

# generate a dataset with the same covariance matrix
achi <- semTools::kd(achi_cov, n = 1000, type = "exact") |> as_tibble()
achi |> print()

# A tibble: 1,000 x 5
   fam_back ability motivate courses achieve
      <dbl>   <dbl>    <dbl>   <dbl>   <dbl>
 1   -0.204   1.45     5.39    1.53   11.1  
 2    0.906  16.9     19.6     2.40    5.03 
 3   -1.25  -17.6      0.236  -2.14  -12.4  
 4   -0.474  20.6      5.36    1.51    2.60 
 5   -2.03  -14.9     -3.05   -1.36   -6.44 
 6    0.192   5.03    -0.928  -2.61  -18.4  
 7   -2.03  -18.1    -16.7    -1.73  -18.8  
 8   -0.385  12.1     10.5    -0.161  10.8  
 9   -0.309  -0.168   -6.64   -0.970  -0.481
10   -1.88  -28.7     -2.38   -1.83  -13.3  
# i 990 more rows
…
