Chapter 21. Latent Growth Models – CHA Statistics II in R
…
    Published

      September 22, 2024

Load libraries

library(tidyverse)
library(lavaan)
library(semTools)

library(haven)
math_growth <- read_sav("data/chap 21 latent growth models/math growth final.sav")
math_growth |> print()

# A tibble: 1,000 x 9
  math1 math2 math3 math4 math5   sex   age ParEd Cognitive
  <dbl> <dbl> <dbl> <dbl> <dbl> <dbl> <dbl> <dbl>     <dbl>
1  57.4  65.8  78.7  86.0  93.8     1  68.2    16        95
2  81.4  87.9  94.2 104.  111.      1  70.8    15       104
3  74.7  82.0  95.5 109.  120.      0  65.4    15       107
4  71.1  80.4  88.2  97.8 102.      1  68.9    14       121
5  70.1  79.1  85.2  92.1 102.      1  69.8    17       112
6  71.7  84.2  86.2  88.2  94.9     0  67.5    19        69
# i 994 more rows
…
