Chapter 19. Latent Means in SEM – CHA Statistics II in R
…
Single Group/Dummy Variable Approach

# load the dataset
hotflash <- read_sav("data/chap 19 latent means/hot flash simulated.sav")
# make a grouping variable as a factor
hotflash <- hotflash |>
  mutate(g = factor(Group, labels = c("control", "treatment")))
hotflash |> print()

# A tibble: 96 × 6
  Group                       HF1   HF2  int1  int2 g        
  <dbl+lbl>                 <dbl> <dbl> <dbl> <dbl> <fct>    
1 0 [Control]               33.4  32.7     64    38 control  
2 1 [Hypnosis Intervention] 25.5  12.7     52     5 treatment
3 1 [Hypnosis Intervention] 11.0   7.60     9     2 treatment
4 1 [Hypnosis Intervention]  8.05  4.05    13     6 treatment
5 0 [Control]               13.2   4.34    61    36 control  
6 0 [Control]                9.89  8.89    15    34 control  
# ℹ 90 more rows
…
