Diagnostics – CHA Statistics II in R
…
MVN: An R Package for Assessing Multivariate Normality

Load data

library(covsim)
set.seed(1)

sigma.target <- matrix(c(1, 0.4, 0.3, 0.4, 1, 0.4, 0.3, 0.4, 1), 3)
ig.sample <- rIG(N = 10^3, sigma.target = sigma.target, reps = 1, skewness = c(0, sqrt(8), 0), excesskurtosis = c(0, 12, 6))

df <- ig.sample |> as.data.frame() |> as_tibble()

df |> print()

# A tibble: 1,000 × 3
      X1     X2     X3
   <dbl>  <dbl>  <dbl>
1 -0.626 -0.609 -0.472
2  0.184 -0.125  0.799
3 -0.836 -0.749 -0.773
4  1.60   2.95   0.975
5  0.330 -0.268  0.693
6 -0.820  1.22   1.27 
# ℹ 994 more rows
…
이상치들

# outliers
results <- mvn(data = hw_mean, mvnTest = "hz", multivariateOutlierMethod = "adj", showOutliers = TRUE, showNewData = TRUE)  # show options

results$multivariateOutliers |> as_tibble() |> print()

# A tibble: 62 × 3
  Observation `Mahalanobis Distance` Outlier
  <chr>                        <dbl> <chr>  
1 1                             94.0 TRUE   
2 2                             88.9 TRUE   
3 3                             86.8 TRUE   
4 4                             85.5 TRUE   
5 5                             83.8 TRUE   
6 6                             73.0 TRUE   
# ℹ 56 more rows
…
Load data

hw_mean <- haven::read_sav("data/chap 19 latent means/Homework means.sav")
hw_mean <- hw_mean |> 
  rename(hw10 = f1s36a2, hw12 = f2s25f2) |>
  labelled::remove_labels()

set.seed(123)
hw_mean <- hw_mean |> sample_n(300)

# NA가 하나라도 포함된 행들만 추출
hw_mean |> 
  filter(rowSums(is.na(hw_mean)) > 0) |> print()

# A tibble: 55 × 15
  bytxrstd bytxmstd bytxsstd bytxhstd parocc  hw10 ethnic  hw12 eng92 math92 sci92 soc92
     <dbl>    <dbl>    <dbl>    <dbl>  <dbl> <dbl>  <dbl> <dbl> <dbl>  <dbl> <dbl> <dbl>
1     46.4     55.2     46.7     42.4   NA      NA      0     2  1.29   0.4   0.4   0.67
2     46.2     50.2     51.1     61.0   15.6     0      1    NA  3.33  NA     0     0   
3     48.4     45.4     62.4     48.8   66.2     1      1     6  1.8    1.5   3.25  3.78
4     59.1     44.7     NA       NA     56.3     3      0     4  8.6    7.25 10.2   9   
5     35.8     32.6     42.5     35.3   56.3    NA      1     1  0.56   3     1.37  0.75
6     37.0     44.4     48.8     52.1   20.3    NA      1     0  0.78   0     1.75  1.29
# ℹ 49 more rows
# ℹ 3 more variables: Female <dbl>, byfaminc <dbl>, bypared <dbl>
…
