Interactions – CHA Statistics II in R
…
연구자의 관심변수에 따라 다르게 표현될 수 있음.

나이가 지구력에 미치는 부정적 영향을 운동이 완화시키는지 관심; 보효요인 (protective factor) <-> 위험요인 (risk factor)

이 때, 운동 기간을 moderator (조절변수)라고 말하고, 그 moderating effect (조절효과)를 가지는지 검증.

통계적으로는 나이과 운동기간이 서로 상호작용(interact)하여 지구력에 영향을 미치는 것으로 나타남.

Data: c07e01dt

acad2 <- read_csv('data/c07e01dt.csv')
acad2 |> print()

# A tibble: 245 x 3
     age exercise endurance
   <dbl>    <dbl>     <dbl>
 1    60       10        18
 2    40        9        36
 3    29        2        51
 4    47       10        18
 5    48        9        23
 6    42        6        30
 7    55        8         8
 8    43       19        40
 9    39        9        28
10    51       14        15
# i 235 more rows
…
직접 상호작용 항을 만들어 주어야 함.

범주형 변수의 경우는 dummy variable까지 만든 후 상호작용 항까지 만들어 주어야 함.

fastDummies::dummy_cols() 함수를 사용하면 쉽게 만들 수 있음.

acad2 <- acad2 |> 
  mutate(age_c = jtools::center(age),
         exercise_c = jtools::center(exercise),
         age_x_exercise_c = age_c * exercise_c)

acad2 |> print()

# A tibble: 245 x 6
     age exercise endurance  age_c exercise_c age_x_exercise_c
   <dbl>    <dbl>     <dbl>  <dbl>      <dbl>            <dbl>
 1    60       10        18  10.8      -0.673            -7.28
 2    40        9        36  -9.18     -1.67             15.4 
 3    29        2        51 -20.2      -8.67            175.  
 4    47       10        18  -2.18     -0.673             1.47
 5    48        9        23  -1.18     -1.67              1.98
 6    42        6        30  -7.18     -4.67             33.6 
 7    55        8         8   5.82     -2.67            -15.5 
 8    43       19        40  -6.18      8.33            -51.5 
 9    39        9        28 -10.2      -1.67             17.0 
10    51       14        15   1.82      3.33              6.04
# i 235 more rows
…
Data: Introduction to Mediation, Moderation, and Conditional Process Analysis; “data files and code”

teams <- read_csv("data/teams.csv")
teams <- teams |> 
  mutate(
    negtone_c = jtools::center(negtone),
    negexp_c = jtools::center(negexp),
    negtone_negexp_c = negtone_c*negexp_c,
  )
teams |> print()

# A tibble: 60 x 7
   dysfunc negtone negexp perform negtone_c negexp_c negtone_negexp_c
     <dbl>   <dbl>  <dbl>   <dbl>     <dbl>    <dbl>            <dbl>
 1   -0.23   -0.51  -0.49    0.12    -0.557   -0.482           0.268 
 2   -0.13    0.22  -0.49    0.52     0.173   -0.482          -0.0832
 3    0      -0.08   0.84   -0.08    -0.127    0.848          -0.108 
 4   -0.33   -0.11   0.84   -0.08    -0.157    0.848          -0.133 
 5    0.39   -0.48   0.17    0.12    -0.527    0.178          -0.0940
 6    1.02    0.72  -0.82    1.12     0.673   -0.812          -0.546 
 7   -0.35   -0.18  -0.66   -0.28    -0.227   -0.652           0.148 
 8   -0.23   -0.13  -0.16    0.32    -0.177   -0.152           0.0269
 9    0.39    0.52  -0.16   -1.08     0.473   -0.152          -0.0717
10   -0.08   -0.26  -0.16   -0.28    -0.307   -0.152           0.0466
# i 50 more rows
…
