Maximum Likelihood Estimation – CHA Statistics II in R
…
Load libraries

library(haven)
library(psych)
library(tidyverse)
library(lavaan)
library(semTools)
library(manymome)

sim1.csv 파일

sim1 <- read_csv("data/sim1.csv")
sim1 |> print(n = 5)

# A tibble: 30 x 2
      x     y
  <dbl> <dbl>
1     1  4.20
2     1  7.51
3     1  2.13
4     2  8.99
5     2 10.2 
# i 25 more rows
…
즉, OLS 방식에서 최선의 모형은 \(\hat{y} = 4.22 + 2.05x\)

이 모형의 예측값과 잔차를 보면,

Add predictions and residuals to sim1 data

library(modelr)
sim1 <- sim1 |> 
  add_predictions(mod) |> 
  add_residuals(mod)
sim1 |> print(n = 7)

# A tibble: 30 x 4
      x     y  pred  resid
  <dbl> <dbl> <dbl>  <dbl>
1     1  4.20  6.27 -2.07 
2     1  7.51  6.27  1.24 
3     1  2.13  6.27 -4.15 
4     2  8.99  8.32  0.665
5     2 10.2   8.32  1.92 
6     2 11.3   8.32  2.97 
7     3  7.36 10.4  -3.02 
# i 23 more rows
…
Residual standard error: 2.203 on 28 degrees of freedom
Multiple R-squared:  0.8846,    Adjusted R-squared:  0.8805 
F-statistic: 214.7 on 1 and 28 DF,  p-value: 1.173e-14

# 위의 모형의 잔차들에 대해 정규분포 함수의 값을 구하면,
sigma <- sd(sim1$resid)  # 잔차의 표준편차: 2.16
# 좀 더 정확히는 샘플 수로 나누지 않고, 자유도로 나누어야 함
sim1 <- sim1 |> 
  mutate(norm = dnorm(resid, mean = 0, sd = sigma))
sim1 |> print(n = 5)

# A tibble: 30 x 5
      x     y  pred  resid   norm
  <dbl> <dbl> <dbl>  <dbl>  <dbl>
1     1  4.20  6.27 -2.07  0.117 
2     1  7.51  6.27  1.24  0.156 
3     1  2.13  6.27 -4.15  0.0294
4     2  8.99  8.32  0.665 0.176 
5     2 10.2   8.32  1.92  0.124 
# i 25 more rows
…
